2005.12.03 01:04 B C:\Inetpub\wwwroot\hertz\POReason\POReasonAddForm.aspx --> 63.134.202.88 /hertz/POReason POReasonAddForm.aspx
2005.12.03 01:05 B C:\Inetpub\wwwroot\hertz\POReason\POReasonAddForm.aspx.resx --> 63.134.202.88 /hertz/POReason POReasonAddForm.aspx.resx
2005.12.03 01:05 B C:\Inetpub\wwwroot\hertz\POReason\POReasonAddForm.aspx.vb --> 63.134.202.88 /hertz/POReason POReasonAddForm.aspx.vb
2005.12.03 01:05 B C:\Inetpub\wwwroot\hertz\POReason\POReasonEditForm.aspx --> 63.134.202.88 /hertz/POReason POReasonEditForm.aspx
2005.12.03 01:05 B C:\Inetpub\wwwroot\hertz\POReason\POReasonEditForm.aspx.resx --> 63.134.202.88 /hertz/POReason POReasonEditForm.aspx.resx
2005.12.03 01:05 B C:\Inetpub\wwwroot\hertz\POReason\POReasonEditForm.aspx.vb --> 63.134.202.88 /hertz/POReason POReasonEditForm.aspx.vb
2005.12.03 01:05 B C:\Inetpub\wwwroot\hertz\POReason\POReasonEditResult.aspx --> 63.134.202.88 /hertz/POReason POReasonEditResult.aspx
2005.12.03 01:05 B C:\Inetpub\wwwroot\hertz\POReason\POReasonEditResult.aspx.resx --> 63.134.202.88 /hertz/POReason POReasonEditResult.aspx.resx
2005.12.03 01:05 B C:\Inetpub\wwwroot\hertz\POReason\POReasonEditResult.aspx.vb --> 63.134.202.88 /hertz/POReason POReasonEditResult.aspx.vb
2005.12.03 01:05 B C:\Inetpub\wwwroot\hertz\POReason\POReasonEditSearch.aspx --> 63.134.202.88 /hertz/POReason POReasonEditSearch.aspx
2005.12.03 01:05 B C:\Inetpub\wwwroot\hertz\POReason\POReasonEditSearch.aspx.resx --> 63.134.202.88 /hertz/POReason POReasonEditSearch.aspx.resx
2005.12.03 01:05 B C:\Inetpub\wwwroot\hertz\POReason\POReasonEditSearch.aspx.vb --> 63.134.202.88 /hertz/POReason POReasonEditSearch.aspx.vb
2005.12.04 16:38 B C:\Inetpub\wwwroot\hertz\POReason\POReasonAddForm.aspx --> 63.134.202.88 /hertz/POReason POReasonAddForm.aspx
2005.12.04 16:38 B C:\Inetpub\wwwroot\hertz\POReason\POReasonAddForm.aspx.resx --> 63.134.202.88 /hertz/POReason POReasonAddForm.aspx.resx
2005.12.04 16:38 B C:\Inetpub\wwwroot\hertz\POReason\POReasonAddForm.aspx.vb --> 63.134.202.88 /hertz/POReason POReasonAddForm.aspx.vb
2005.12.04 16:38 B C:\Inetpub\wwwroot\hertz\POReason\POReasonEditForm.aspx --> 63.134.202.88 /hertz/POReason POReasonEditForm.aspx
2005.12.04 16:38 B C:\Inetpub\wwwroot\hertz\POReason\POReasonEditForm.aspx.resx --> 63.134.202.88 /hertz/POReason POReasonEditForm.aspx.resx
2005.12.04 16:38 B C:\Inetpub\wwwroot\hertz\POReason\POReasonEditForm.aspx.vb --> 63.134.202.88 /hertz/POReason POReasonEditForm.aspx.vb
2005.12.04 16:38 B C:\Inetpub\wwwroot\hertz\POReason\POReasonEditResult.aspx --> 63.134.202.88 /hertz/POReason POReasonEditResult.aspx
2005.12.04 16:38 B C:\Inetpub\wwwroot\hertz\POReason\POReasonEditResult.aspx.resx --> 63.134.202.88 /hertz/POReason POReasonEditResult.aspx.resx
2005.12.04 16:38 B C:\Inetpub\wwwroot\hertz\POReason\POReasonEditResult.aspx.vb --> 63.134.202.88 /hertz/POReason POReasonEditResult.aspx.vb
2005.12.04 16:38 B C:\Inetpub\wwwroot\hertz\POReason\POReasonEditSearch.aspx --> 63.134.202.88 /hertz/POReason POReasonEditSearch.aspx
2005.12.04 16:38 B C:\Inetpub\wwwroot\hertz\POReason\POReasonEditSearch.aspx.resx --> 63.134.202.88 /hertz/POReason POReasonEditSearch.aspx.resx
2005.12.04 16:38 B C:\Inetpub\wwwroot\hertz\POReason\POReasonEditSearch.aspx.vb --> 63.134.202.88 /hertz/POReason POReasonEditSearch.aspx.vb
2005.12.04 16:38 B C:\Inetpub\wwwroot\hertz\POReason\WS_FTP.LOG --> 63.134.202.88 /hertz/POReason WS_FTP.LOG
2005.12.05 00:42 B C:\Inetpub\wwwroot\hertz\POReason\POReasonAddForm.aspx --> 63.134.202.88 /hertz/POReason POReasonAddForm.aspx
2005.12.05 00:42 B C:\Inetpub\wwwroot\hertz\POReason\POReasonAddForm.aspx.resx --> 63.134.202.88 /hertz/POReason POReasonAddForm.aspx.resx
2005.12.05 00:42 B C:\Inetpub\wwwroot\hertz\POReason\POReasonAddForm.aspx.vb --> 63.134.202.88 /hertz/POReason POReasonAddForm.aspx.vb
2005.12.05 00:42 B C:\Inetpub\wwwroot\hertz\POReason\POReasonEditForm.aspx --> 63.134.202.88 /hertz/POReason POReasonEditForm.aspx
2005.12.05 00:42 B C:\Inetpub\wwwroot\hertz\POReason\POReasonEditForm.aspx.resx --> 63.134.202.88 /hertz/POReason POReasonEditForm.aspx.resx
2005.12.05 00:42 B C:\Inetpub\wwwroot\hertz\POReason\POReasonEditForm.aspx.vb --> 63.134.202.88 /hertz/POReason POReasonEditForm.aspx.vb
2005.12.05 00:42 B C:\Inetpub\wwwroot\hertz\POReason\POReasonEditResult.aspx --> 63.134.202.88 /hertz/POReason POReasonEditResult.aspx
2005.12.05 00:42 B C:\Inetpub\wwwroot\hertz\POReason\POReasonEditResult.aspx.resx --> 63.134.202.88 /hertz/POReason POReasonEditResult.aspx.resx
2005.12.05 00:42 B C:\Inetpub\wwwroot\hertz\POReason\POReasonEditResult.aspx.vb --> 63.134.202.88 /hertz/POReason POReasonEditResult.aspx.vb
2005.12.05 00:42 B C:\Inetpub\wwwroot\hertz\POReason\POReasonEditSearch.aspx --> 63.134.202.88 /hertz/POReason POReasonEditSearch.aspx
2005.12.05 00:42 B C:\Inetpub\wwwroot\hertz\POReason\POReasonEditSearch.aspx.resx --> 63.134.202.88 /hertz/POReason POReasonEditSearch.aspx.resx
2005.12.05 00:42 B C:\Inetpub\wwwroot\hertz\POReason\POReasonEditSearch.aspx.vb --> 63.134.202.88 /hertz/POReason POReasonEditSearch.aspx.vb
2005.12.05 00:42 B C:\Inetpub\wwwroot\hertz\POReason\WS_FTP.LOG --> 63.134.202.88 /hertz/POReason WS_FTP.LOG
2005.12.06 00:49 B C:\Inetpub\wwwroot\hertz\POReason\POReasonAddForm.aspx --> 63.134.202.88 /hertz/POReason POReasonAddForm.aspx
2005.12.06 00:49 B C:\Inetpub\wwwroot\hertz\POReason\POReasonAddForm.aspx.resx --> 63.134.202.88 /hertz/POReason POReasonAddForm.aspx.resx
2005.12.06 00:49 B C:\Inetpub\wwwroot\hertz\POReason\POReasonAddForm.aspx.vb --> 63.134.202.88 /hertz/POReason POReasonAddForm.aspx.vb
2005.12.06 00:49 B C:\Inetpub\wwwroot\hertz\POReason\POReasonEditForm.aspx --> 63.134.202.88 /hertz/POReason POReasonEditForm.aspx
2005.12.06 00:49 B C:\Inetpub\wwwroot\hertz\POReason\POReasonEditForm.aspx.resx --> 63.134.202.88 /hertz/POReason POReasonEditForm.aspx.resx
2005.12.06 00:49 B C:\Inetpub\wwwroot\hertz\POReason\POReasonEditForm.aspx.vb --> 63.134.202.88 /hertz/POReason POReasonEditForm.aspx.vb
2005.12.06 00:49 B C:\Inetpub\wwwroot\hertz\POReason\POReasonEditResult.aspx --> 63.134.202.88 /hertz/POReason POReasonEditResult.aspx
2005.12.06 00:49 B C:\Inetpub\wwwroot\hertz\POReason\POReasonEditResult.aspx.resx --> 63.134.202.88 /hertz/POReason POReasonEditResult.aspx.resx
2005.12.06 00:49 B C:\Inetpub\wwwroot\hertz\POReason\POReasonEditResult.aspx.vb --> 63.134.202.88 /hertz/POReason POReasonEditResult.aspx.vb
2005.12.06 00:49 B C:\Inetpub\wwwroot\hertz\POReason\POReasonEditSearch.aspx --> 63.134.202.88 /hertz/POReason POReasonEditSearch.aspx
2005.12.06 00:49 B C:\Inetpub\wwwroot\hertz\POReason\POReasonEditSearch.aspx.resx --> 63.134.202.88 /hertz/POReason POReasonEditSearch.aspx.resx
2005.12.06 00:49 B C:\Inetpub\wwwroot\hertz\POReason\POReasonEditSearch.aspx.vb --> 63.134.202.88 /hertz/POReason POReasonEditSearch.aspx.vb
2005.12.06 09:20 B F:\CORIntControlPanel\POReason\WS_FTP.LOG <-- COR - Crystal /CORIntTemp/hertz/POReason WS_FTP.LOG
